…
xgb_recipe = recipe(transported ~ ., data = train_data) |>
  update_role(passenger_id, new_role = "ID") |>
  step_rm(passenger_id) |>
  step_dummy(all_predictors())

xgb_recipe |>
  prep() |>
  bake(train_data)
```

    ## # A tibble: 6,519 × 38
    ##    transported   home_…¹ home_…² home_…³ cryo_…⁴ cryo_…⁵ cabin…⁶ cabin…⁷ cabin…⁸
    ##    <fct>           <dbl>   <dbl>   <dbl>   <dbl>   <dbl>   <dbl>   <dbl>   <dbl>
    ##  1 not transpor…       1       0       0       1       0       1       0       0
    ##  2 not transpor…       1       0       0       1       0       0       0       0
    ##  3 not transpor…       0       1       0       1       0       0       0       0
    ##  4 not transpor…       0       0       0       1       0       0       0       0
    ##  5 not transpor…       0       0       0       0       0       0       0       0
    ##  6 not transpor…       0       0       0       0       0       0       0       0
    ##  7 not transpor…       0       0       0       0       0       0       0       0
    ##  8 not transpor…       0       0       0       0       0       0       0       0
    ##  9 not transpor…       0       0       0       1       0       0       0       0
    ## 10 not transpor…       0       1       0       1       0       0       0       1
    ## # … with 6,509 more rows, 29 more variables: cabin_x_E <dbl>, cabin_x_F <dbl>,
    ## #   cabin_x_G <dbl>, cabin_x_other <dbl>, cabin_y_P <dbl>, cabin_y_S <dbl>,
    ## #   destination_PSO.J318.5.22 <dbl>, destination_TRAPPIST.1e <dbl>,
    ## #   destination_unknown <dbl>, age_X.18.24. <dbl>, age_X.24.30. <dbl>,
    ## #   age_X.30.40. <dbl>, age_X.40.79. <dbl>, vip_non.vip <dbl>,
    ## #   vip_unknown <dbl>, room_service_less.rs <dbl>, room_service_most.rs <dbl>,
    ## #   food_court_some.fc <dbl>, food_court_most.fc <dbl>, …
…
